…
- ...:

  Additional arguments passed to the underlying `get_sessions()`
  function.

## Value

Data frame with the sessions table.

## Examples

``` r
get_sessions("abcd")
#> # A tibble: 27 × 4
#>    session_id label    order     n
#>    <chr>      <chr>    <dbl> <dbl>
#>  1 ses-00S    Screener     1 11867
#>  2 ses-00A    Baseline     2 11868
#>  3 ses-00M    0.5 Year     3 11388
#>  4 ses-01A    1 Year       4 11219
#>  5 ses-01M    1.5 Year     5 11082
#>  6 ses-02A    2 Year       6 10973
#>  7 ses-02M    2.5 Year     7 10253
#>  8 ses-03A    3 Year       8 10450
#>  9 ses-03M    3.5 Year     9  9573
#> 10 ses-04A    4 Year      10  9739
#> # ℹ 17 more rows

get_sessions("hbcd")
#> # A tibble: 5 × 2
#>   session_id label  
#>   <chr>      <chr>  
#> 1 ses-V01    Visit 1
#> 2 ses-V02    Visit 2
#> 3 ses-V03    Visit 3
#> 4 ses-V04    Visit 4
#> 5 ses-V05    Visit 5

get_sessions_abcd(release = "6.0")
#> # A tibble: 26 × 2
#>    session_id label   
#>    <fct>      <fct>   
#>  1 ses-00S    Screener
#>  2 ses-00A    Baseline
#>  3 ses-00M    0.5 Year
#>  4 ses-01A    1 Year  
#>  5 ses-01M    1.5 Year
#>  6 ses-02A    2 Year  
#>  7 ses-02M    2.5 Year
#>  8 ses-03A    3 Year  
#>  9 ses-03M    3.5 Year
#> 10 ses-04A    4 Year  
#> # ℹ 16 more rows
…
