…
In a more realistic scenario, once you downloaded the ABCD data files to
a local directory, there will be a lot more files in the `phenotype/`
directory; it should contain one file per database table for a given
study. To see the tables available in the ABCD tabulated data resource,
you can use `NBDCtools`’
[`get_dd_abcd()`](https://software.nbdc-datahub.org/NBDCtools/reference/get_dd.md)
function:

``` r
dd_abcd <- get_dd_abcd()
dd_abcd |>
  dplyr::distinct(table_name, table_label)
#> # A tibble: 718 × 2
#>    table_name  table_label                                 
#>    <glue>      <glue>                                      
#>  1 ab_g_dyn    ABCD Dynamic Variables [General]            
#>  2 ab_g_stc    ABCD Static Variables [General]             
#>  3 ab_p_demo   Demographics [Parent]                       
#>  4 ab_p_ocp    Occupation Survey [Parent]                  
#>  5 ab_p_screen Screener (Study Eligibility) [Parent]       
#>  6 fc_p_aclt   Acculturation [Parent]                      
#>  7 fc_p_drv    Youth Driving [Parent]                      
#>  8 fc_p_fes    Family Environment Scale [Parent]           
#>  9 fc_p_hsf    Home Short Form [Parent]                    
#> 10 fc_p_meim   Multi-Group Ethnic Identity Measure [Parent]
#> # ℹ 708 more rows
```
…
